<svg xmlns="http://www.w3.org/2000/svg" viewBox="0 0 95.85 33.44">
    <title>TheYaddo Logo (Alternate)</title>
    <g>
        <g fill="#fff">
            <path d="M1,5.14a1,1,0,0,0,0,.23c0,.48.35.64,1,.64h.4l-.11.57a2.63,2.63,0,0,1-.49,0C.87,6.61.27,6.29.27,5.47a2.24,2.24,0,0,1,0-.34L.7,2.89H0l.09-.6H.81L1,1.13h.67L1.47,2.29H2.8l-.11.6H1.36Z" />
            <path d="M7.12,4.05,6.68,6.52H6L6.46,4c0-.16,0-.28,0-.35a.83.83,0,0,0-.93-.88,1.22,1.22,0,0,0-1.25,1L3.85,6.52H3.18L4.32,0H5L4.53,2.64a1.76,1.76,0,0,1,1.2-.45A1.34,1.34,0,0,1,7.17,3.58,3.28,3.28,0,0,1,7.12,4.05Z"/>
            <path d="M8.82,4.61A1.38,1.38,0,0,0,10.3,6a2,2,0,0,0,1.3-.52l.34.46a2.45,2.45,0,0,1-1.7.67,2,2,0,0,1-2.1-2.07,2.32,2.32,0,0,1,2.29-2.35,1.77,1.77,0,0,1,1.83,1.88,1.41,1.41,0,0,1-.11.54ZM11.58,4A1.11,1.11,0,0,0,10.4,2.8,1.52,1.52,0,0,0,8.88,4Z"/>
            <path d="M34.48,17.32v6.11a3.69,3.69,0,0,1-3.7,3.7h0v-2c-.94,1.44-2.76,2.25-5.26,2.25-3.83,0-6.24-2.1-6.24-5s1.88-5,7-5h4.32V17.1c0-2.29-1.38-3.64-4.17-3.64a9,9,0,0,0-5.29,1.73,3,3,0,0,1,1.7-4.13,9.32,9.32,0,0,1,4.57-.93A7.17,7.17,0,0,1,34.48,17.32ZM30.56,21.9V20h-4c-2.67,0-3.39,1-3.39,2.22,0,1.41,1.19,2.32,3.2,2.32A4.27,4.27,0,0,0,30.56,21.9Z"/>
            <path d="M55.18,3.87V23.43a3.7,3.7,0,0,1-3.7,3.7h-.06V25a6.9,6.9,0,0,1-5.55,2.38,8.15,8.15,0,0,1-8.47-8.59,8.13,8.13,0,0,1,8.47-8.56,6.88,6.88,0,0,1,5.39,2.26V7.79a3.92,3.92,0,0,1,3.92-3.92ZM51.32,18.76a5,5,0,1,0-10,0,5,5,0,1,0,10,0Z"/>
            <path d="M76.1,3.87V23.43a3.7,3.7,0,0,1-3.7,3.7h-.06V25a6.9,6.9,0,0,1-5.55,2.38,8.15,8.15,0,0,1-8.47-8.59,8.13,8.13,0,0,1,8.47-8.56,6.88,6.88,0,0,1,5.39,2.26V7.79A3.92,3.92,0,0,1,76.1,3.87ZM72.24,18.76a5,5,0,1,0-10,0,5,5,0,1,0,10,0Z"/>
        </g>
        <g fill="#e7277b">
            <path d="M87.35,10.49a8.36,8.36,0,1,1-8.43,8.34A8.36,8.36,0,0,1,87.35,10.49Z"/>
            <path d="M9.51,21.88,6.19,14.14A6.17,6.17,0,0,0,.52,10.39l2.55,5.77A10.22,10.22,0,0,1,9.51,21.88Z"/>
        </g>
        <path fill="#fff" d="M13.68,13.85,9.86,22.78s-1.37-2-5.58-3.78l3.54,8.2-.28.65C6.79,29.52,6,30.17,4.59,30.17A4.25,4.25,0,0,1,1.71,29L.14,31.9a6.94,6.94,0,0,0,4.48,1.54c2.79,0,4.93-1.17,6.46-5l7.84-18.09h0A5.7,5.7,0,0,0,13.68,13.85Z"
        />
    </g>
</svg>