<svg xmlns="http://www.w3.org/2000/svg" viewBox="0 0 79.89 78.81">
    <title>TheYaddo Icon (Default)</title>
    <g>
        <path fill="#e7277b" d="M39.79,0c22-.46,40.55,18,40.09,39.32.46,21.35-18.13,39.93-40.09,39.47C18.13,79.26-.45,60.68,0,39.33-.45,17.67,18.13-.3,39.79,0Z" />
        <g fill="#fff">
            <path d="M39.91,40.35,33.4,25.2a12.06,12.06,0,0,0-11.1-7.34l5,11.29C34.19,31.19,37.65,35.82,39.91,40.35Z"/>
            <path d="M48.06,24.63,40.59,42.09S37.9,38.15,29.66,34.7l6.94,16L36.05,52c-1.47,3.25-3.07,4.54-5.77,4.54a8.29,8.29,0,0,1-5.64-2.27L21.57,60a13.62,13.62,0,0,0,8.77,3C35.8,63,40,60.68,43,53.26l15.34-35.4h0A11.15,11.15,0,0,0,48.06,24.63Z"/>
        </g>
    </g>
</svg>